{
    "info": {
        "_postman_id": "d0434245-8d7f-7855-e5c3-8847c5edaf68",
        "name": "flight-server-tests",
        "schema": "https://schema.getpostman.com/json/collection/v2.0.0/collection.json"
    },
    "item": [
        {
            "name": "airports",
            "request": {
                "method": "GET",
                "header": [
                    {
                        "key": "Content-Type",
                        "value": "application/json"
                    }
                ],
                "body": {
                    "mode": "raw",
                    "raw": "{\n  \"departureDate\": \"2021-04-21\",\n  \"arrivalDate\": \"2021-04-21\",\n  \"departureAirport\": \"EWR\",\n  \"arrivalAirport\": \"CAK\",\n  \"passengers\": 0,\n  \"fromCurrency\": \"USD\",\n  \"toCurrency\": \"CAN\"\n}"
                },
                "url": "localhost:8081/airports"
            },
            "response": []
        },
        {
            "name": "flights",
            "request": {
                "method": "GET",
                "header": [
                    {
                        "key": "Content-Type",
                        "value": "application/json"
                    }
                ],
                "body": {
                    "mode": "raw",
                    "raw": "{\n  \"departureDate\": \"2021-03-14\",\n  \"arrivalDate\": \"2021-03-14\",\n  \"departureAirport\": \"1\",\n  \"arrivalAirport\": \"2\",\n  \"passengers\": 1,\n  \"currency\": \"USD\"\n}"
                },
                "url": {
                    "raw": "localhost:8081/flights?departureAirport=1&arrivalAirport=2&departureDate=2021-03-14&currency=USD",
                    "host": [
                        "localhost"
                    ],
                    "port": "8081",
                    "path": [
                        "flights"
                    ],
                    "query": [
                        {
                            "key": "departureAirport",
                            "value": "1"
                        },
                        {
                            "key": "arrivalAirport",
                            "value": "2"
                        },
                        {
                            "key": "departureDate",
                            "value": "2021-03-14"
                        },
                        {
                            "key": "currency",
                            "value": "USD"
                        }
                    ]
                }
            },
            "response": []
        },
        {
            "name": "best-price",
            "request": {
                "method": "GET",
                "header": [
                    {
                        "key": "Content-Type",
                        "value": "application/json"
                    }
                ],
                "body": {
                    "mode": "raw",
                    "raw": "{\n  \"departureDate\": \"2021-03-14\",\n  \"arrivalDate\": \"2021-03-14\",\n  \"departureAirport\": \"1\",\n  \"arrivalAirport\": \"2\",\n  \"passengers\": 0,\n  \"currency\": \"USD\"\n}"
                },
                "url": {
                    "raw": "localhost:8081/best-price?departureAirport=1&arrivalAirport=2&departureDate=2021-03-14&currency=USD",
                    "host": [
                        "localhost"
                    ],
                    "port": "8081",
                    "path": [
                        "best-price"
                    ],
                    "query": [
                        {
                            "key": "departureAirport",
                            "value": "1"
                        },
                        {
                            "key": "arrivalAirport",
                            "value": "2"
                        },
                        {
                            "key": "departureDate",
                            "value": "2021-03-14"
                        },
                        {
                            "key": "currency",
                            "value": "USD"
                        }
                    ]
                }
            },
            "response": []
        },
        {
            "name": "exchange rate CAN -> USD",
            "request": {
                "method": "GET",
                "header": [
                    {
                        "key": "Content-Type",
                        "value": "application/json"
                    }
                ],
                "body": {
                    "mode": "raw",
                    "raw": "{\n    \"fromCurrency\": \"USD\",\n    \"toCurrency\": \"CAN\"\n}"
                },
                "url": {
                    "raw": "localhost:8081/rate?fromCurrency=CAN&toCurrency=USD",
                    "host": [
                        "localhost"
                    ],
                    "port": "8081",
                    "path": [
                        "rate"
                    ],
                    "query": [
                        {
                            "key": "fromCurrency",
                            "value": "CAN"
                        },
                        {
                            "key": "toCurrency",
                            "value": "USD"
                        }
                    ]
                }
            },
            "response": []
        },
        {
            "name": "exchange rate -> USD",
            "request": {
                "method": "GET",
                "header": [
                    {
                        "key": "Content-Type",
                        "value": "application/json"
                    }
                ],
                "body": {
                    "mode": "raw",
                    "raw": "{\n    \"fromCurrency\": \"USD\",\n    \"toCurrency\": \"CAN\"\n}"
                },
                "url": {
                    "raw": "localhost:8081/rates?toCurrency=USD",
                    "host": [
                        "localhost"
                    ],
                    "port": "8081",
                    "path": [
                        "rates"
                    ],
                    "query": [
                        {
                            "key": "toCurrency",
                            "value": "USD"
                        }
                    ]
                }
            },
            "response": []
        },
        {
            "name": "dates from airport 1 -> airport 2",
            "request": {
                "method": "GET",
                "header": [
                    {
                        "key": "Content-Type",
                        "value": "application/json"
                    }
                ],
                "body": {
                    "mode": "raw",
                    "raw": "{\n    \"fromCurrency\": \"USD\",\n    \"toCurrency\": \"CAN\"\n}"
                },
                "url": {
                    "raw": "localhost:8081/dates?departureAirport=1&arrivalAirport=2",
                    "host": [
                        "localhost"
                    ],
                    "port": "8081",
                    "path": [
                        "dates"
                    ],
                    "query": [
                        {
                            "key": "departureAirport",
                            "value": "1"
                        },
                        {
                            "key": "arrivalAirport",
                            "value": "2"
                        }
                    ]
                }
            },
            "response": []
        },
        {
            "name": "dates from airport 2 -> airport 3",
            "request": {
                "method": "GET",
                "header": [
                    {
                        "key": "Content-Type",
                        "value": "application/json"
                    }
                ],
                "body": {
                    "mode": "raw",
                    "raw": "{\n    \"fromCurrency\": \"USD\",\n    \"toCurrency\": \"CAN\"\n}"
                },
                "url": {
                    "raw": "localhost:8081/dates?departureAirport=2&arrivalAirport=3",
                    "host": [
                        "localhost"
                    ],
                    "port": "8081",
                    "path": [
                        "dates"
                    ],
                    "query": [
                        {
                            "key": "departureAirport",
                            "value": "2"
                        },
                        {
                            "key": "arrivalAirport",
                            "value": "3"
                        }
                    ]
                }
            },
            "response": []
        }
    ]
}
